<!DOCTYPE HTML><html>
<head>
    <meta charset="UTF-8">
    <link rel="stylesheet" href="template_img_and_txt.css">
    <script src="template_img_and_txt.js"></script>
</head>
<body>
    <img src="plot1.png">
    <object data="plot1.R"></object>

    <img src="plot2.png">
    <object data="plot2.R"></object>

    <!-- insert new sets similar to above -->
</body>
</html>
