<?xml version="1.0"?>
<svg xmlns="http://www.w3.org/2000/svg">
<style>
rect, line {
    stroke-width: 0.5;
    /* 0.5px = 0.36pt = 0.127mm */
    /* 1px = 0.72 pt */
    /* 1pt = 1/72 inch = 25.4 / 72 mm */

    stroke: black;
    vector-effect: non-scaling-stroke;
}
rect {
    fill: none;
}
</style>
<script type="text/javascript">
// <![CDATA[
    function set(elem, ary) {
        for (var i = 0, len = ary.length; i < len; i+=2) {
            elem.setAttribute(ary[i], ary[i+1]);
        }
    }

    var svg = document.documentElement,
        ns = svg.namespaceURI,
        rect1 = document.createElementNS(ns, 'rect'),
        line1 = document.createElementNS(ns, 'line'),
        paperWidth = 210,
        paperHeight = 297,
        marTop = 30,
        marLeft = marRight = marBottom = 20,
        n = 20;

    set(svg, ['viewBox', '0 0 ' + paperWidth + ' ' + paperHeight]);

    var limX = Math.floor((paperWidth - marLeft - marRight) / n);
    for (var i = 0; i < limX; i++) {
        var line2 = line1.cloneNode(),
            x = n * (i+1) + marLeft;
        set(line2, [
            'x1', x,
            'y1', marTop,
            'x2', x,
            'y2', paperHeight - marBottom ]);
        svg.appendChild(line2);
    }

    var limY = Math.floor((paperHeight - marTop - marBottom) / n);
    for (var i = 0; i < limY; i++) {
        var line2 = line1.cloneNode(),
            y = n * (i+1) + marTop;
        set(line2, [
            'x1', marLeft,
            'y1', y,
            'x2', paperWidth - marRight,
            'y2', y ]);
        svg.appendChild(line2);
    }

    set(rect1, [
        'x', marLeft,
        'y', marTop,
        'width', paperWidth - marLeft - marRight,
        'height', paperHeight - marTop - marBottom ]);
    svg.appendChild(rect1);
// ]]>
</script>
</svg>
